<?xml version="1.0" standalone="no"?>
<!DOCTYPE svg PUBLIC "-//W3C//DTD SVG 1.1//EN" "http://www.w3.org/Graphics/SVG/1.1/DTD/svg11.dtd" >
<!--
2016-10-12: Created.
-->
<svg xmlns="http://www.w3.org/2000/svg">
<metadata>
Created by FontForge 20120731 at Wed Oct 12 16:28:11 2016
 By Apache
Created by Apache with FontForge 2.0 (http://fontforge.sf.net)
</metadata>
<defs>
<font id="Flaticon" horiz-adv-x="512" >
  <font-face 
    font-family="Flaticon"
    font-weight="500"
    font-stretch="normal"
    units-per-em="512"
    panose-1="2 0 6 3 0 0 0 0 0 0"
    ascent="448"
    descent="-64"
    bbox="0 -64 512.003 448"
    underline-thickness="25.6"
    underline-position="-51.2"
    unicode-range="U+0020-F104"
  />
    <missing-glyph />
    <glyph glyph-name="space" unicode=" " horiz-adv-x="200" 
 />
    <glyph glyph-name="uniF100" unicode="&#xf100;" 
d="M462.373 306.205h-128.289v31.8652h128.3v-31.8652h-0.0107422zM248.68 175.533c8.27832 -12.8213 12.4141 -28.3887 12.4141 -46.666c0 -18.9004 -4.66309 -35.8555 -14.1514 -50.833c-6.03711 -9.91016 -13.5312 -18.2822 -22.5361 -25.0225
c-10.1416 -7.79395 -22.1494 -13.1387 -35.9521 -15.9941c-13.8477 -2.86035 -28.8359 -4.30566 -44.9805 -4.30566h-143.474v318.575h153.854c38.7812 -0.630859 66.2744 -11.8672 82.5098 -33.9326c9.74219 -13.5332 14.5684 -29.7715 14.5684 -48.6475
c0 -19.4766 -4.88477 -35.0605 -14.7217 -46.9014c-5.47266 -6.63867 -13.5557 -12.6768 -24.2578 -18.1279c16.21 -5.93359 28.5088 -15.2783 36.7275 -28.1445zM73.4717 225.688h67.4121c13.8535 0 25.0518 2.63379 33.6777 7.89746
c8.61914 5.25488 12.9199 14.5967 12.9199 28.0098c0 14.8193 -5.69434 24.6553 -17.1113 29.3887c-9.81348 3.28906 -22.3691 4.9834 -37.6045 4.9834h-59.2939v-70.2793zM193.973 133.418c0 16.5488 -6.76367 27.9893 -20.2637 34.1279
c-7.5498 3.48926 -18.2012 5.27246 -31.8574 5.39941h-68.3799v-84.8984h67.3213c13.8311 0 24.5361 1.81055 32.2607 5.58691c13.9326 6.94531 20.9189 20.1611 20.9189 39.7842zM509.972 185.245c1.5498 -10.4229 2.25098 -25.5449 1.9668 -45.3105h-166.148
c0.916992 -22.9336 8.83398 -38.9717 23.8496 -48.1494c9.05469 -5.75488 20.0332 -8.56543 32.8896 -8.56543c13.5557 0 24.6045 3.42676 33.1094 10.4717c4.63379 3.73438 8.72168 9.00488 12.2559 15.6553h60.8984
c-1.59473 -13.5449 -8.92773 -27.2832 -22.1045 -41.2432c-20.416 -22.1895 -49.0488 -33.3154 -85.8213 -33.3154c-30.3779 0 -57.1504 9.38281 -80.3887 28.083c-23.1602 18.7646 -34.793 49.1973 -34.793 91.4131c0 39.5879 10.4434 69.8887 31.3994 90.9785
c21.0332 21.1309 48.1787 31.6475 81.6387 31.6475c19.832 0 37.71 -3.54492 53.6602 -10.6719c15.8994 -7.13379 29.0391 -18.3613 39.3887 -33.792c9.36523 -13.5889 15.3887 -29.3018 18.1992 -47.2012zM450.029 179.301
c-1.11719 15.8574 -6.41211 27.8604 -15.9453 36.0625c-9.45508 8.22559 -21.2666 12.3555 -35.3604 12.3555c-15.3389 0 -27.1836 -4.41406 -35.5996 -13.0898c-8.47266 -8.65723 -13.7451 -20.4277 -15.9053 -35.3291h102.811v0.000976562z" />
    <glyph glyph-name="uniF102" unicode="&#xf102;" 
d="M507.516 -37.8887c5.90332 -5.9043 5.90332 -15.667 0 -21.5703c-2.95117 -3.06543 -6.9248 -4.54102 -10.7852 -4.54102c-3.85938 0 -7.83301 1.58984 -10.7842 4.54102l-124.425 124.424c-38.3711 -33.376 -88.4355 -53.584 -143.155 -53.584
c-120.337 0 -218.31 97.9727 -218.31 218.31s97.8594 218.31 218.31 218.31c120.337 0 218.31 -97.8594 218.31 -218.31c0 -54.7197 -20.207 -104.784 -53.584 -143.155zM30.5947 229.69c0 -103.535 84.2363 -187.771 187.658 -187.771
c103.535 0 187.657 84.3496 187.657 187.771s-84.1221 187.657 -187.657 187.657c-103.422 0 -187.658 -84.1221 -187.658 -187.657z" />
    <glyph glyph-name="uniF104" unicode="&#xf104;" 
d="M173.201 -8.90039c-49.6592 0 -98.8564 13.7461 -142.256 39.7441l-30.9453 18.5303l36.0586 -0.607422c1.16797 -0.0585938 3.04883 -0.154297 6.00977 -0.154297c13.7266 0 57.4541 2.20898 102.29 27.5107c-33.7041 10.0215 -61.5537 36.0762 -73.0225 70.1875
l-5.68164 16.8896l15.4736 -4.02246c-24.7998 19.0518 -41.0254 48.3379 -42.8008 80.9814l-0.849609 15.626l14.3447 -6.26074c2.61426 -1.14746 5.27539 -2.16113 7.97754 -3.03809c-20.373 28.5156 -32.7012 72.5791 -6.99316 119.383l7.08008 12.8984l8.99902 -11.6436
c43.1201 -55.7471 107.056 -89.7402 176.779 -94.4082c-0.424805 4.33203 -0.723633 8.31543 -0.723633 9.55957c0 51.7441 39.376 105.262 105.262 105.262c27.6572 0 54.2803 -10.9873 73.8926 -30.3281c26.2861 6.17383 51.4053 21.501 51.6758 21.666l22.7842 14.0264
l-8.60449 -25.3408c-4.12891 -12.1348 -10.418 -23.3154 -18.4824 -33.0771c4.39844 1.4375 8.71973 3.08691 13.167 5.02441l27.3672 13.3711l-11.499 -24.6953c-9.49219 -20.4023 -25.3203 -37.2354 -44.9805 -48c4.32129 -67.5342 -23.4502 -142.882 -73.4082 -198.215
c-37.0811 -41.084 -103.12 -90.1826 -207.155 -90.8496zM71.8066 31.5283c32.1611 -13.8809 66.6562 -21.126 101.384 -21.126l1.64941 0.00878906c97.0039 0.617188 158.479 46.2832 192.956 84.4824c48.0771 53.2588 74.1426 126.078 68.0068 190.052l-0.646484 6.79102
l6.17285 2.87402c9.79102 4.5625 18.5596 10.8994 25.9199 18.6074c-8.2373 -2.08301 -17.0254 -3.63672 -27.1553 -4.86133l-7.39844 -0.898438l-5.76758 14.624l6.71387 5.1709c9.4043 5.50879 17.6045 12.6846 24.2314 21.0869
c-10.4863 -4.4668 -22.8623 -8.83594 -35.2383 -11.1416l-5.28613 -0.984375l-3.61719 3.97461c-16.2646 17.8457 -39.4062 28.0703 -63.5215 28.0703c-53.8076 0 -85.9688 -43.707 -85.9688 -85.9678c0 -2.55664 1.27246 -14.1904 1.72559 -17.1807l4.37988 -12.4531
l-13.9287 0.298828c-74.6631 1.61035 -144.126 34.3311 -192.889 90.3291c-19.293 -50.6641 13.1006 -91.1396 28.5723 -103.265l22.6211 -17.7393l-28.7373 0.500977c-9 0.154297 -17.8076 1.37988 -26.3447 3.65625c7.5918 -33.8584 34.3506 -61.0615 69.1152 -68.5273
l38.0557 -8.17969l-37.4668 -10.5449c-6.53125 -1.83203 -13.9395 -2.75879 -22.0225 -2.75879c-3.78027 0 -7.39746 0.203125 -10.7363 0.511719c15.0684 -26.5273 43.1289 -44.3545 74.1709 -45.8682l27.126 -1.33203l-21.875 -16.0762
c-37.4951 -27.5791 -76.3896 -38.1992 -104.201 -42.1348z" />
    <glyph glyph-name="uniF101" unicode="&#xf101;" 
d="M296.309 -64h-110.177v229.561h-60.6953v105.428h60.6934v59.2002c0 54.3496 34.0029 117.812 129.875 117.812c33.7969 0 58.6084 -3.16699 59.6455 -3.30371l10.1719 -1.32227l-2.44922 -98.6621l-11.209 0.103516c-0.0234375 0 -25.21 0.239258 -52.6855 0.239258
c-20.4473 0 -23.1592 -5.04688 -23.1592 -25.1182v-48.9717h90.2422l-5 -105.427h-85.2314v-229.538h-0.0214844zM208.9 -41.2168h64.6123v229.549h86.2793l2.84863 59.8721h-89.1279v71.7559c0 23.6943 5.45605 47.9014 45.9414 47.9014
c16.2676 0 31.7256 -0.0800781 41.6689 -0.160156l1.37891 55.4648c-10.0586 0.900391 -26.793 2.05078 -46.5225 2.05078c-78.9531 0 -107.091 -49.0859 -107.091 -95.0283v-81.9844h-60.6914v-59.8721h60.6934v-229.549h0.00976562z" />
    <glyph glyph-name="uniF103" unicode="&#xf103;" 
d="M19.3203 317.585c-10.665 0 -19.3203 8.65527 -19.3203 19.3203s8.65527 19.3213 19.3203 19.3213h473.359c10.665 0 19.3203 -8.65625 19.3203 -19.3213s-8.65527 -19.3203 -19.3203 -19.3203h-473.359zM19.3203 172.68c-10.665 0 -19.3203 8.65527 -19.3203 19.3203
s8.65527 19.3203 19.3203 19.3203h473.359c10.665 0 19.3203 -8.65527 19.3203 -19.3203s-8.65527 -19.3203 -19.3203 -19.3203h-473.359zM19.3203 27.7734c-10.665 0 -19.3203 8.65625 -19.3203 19.3213s8.65527 19.3203 19.3203 19.3203h473.359
c10.665 0 19.3203 -8.65527 19.3203 -19.3203s-8.65527 -19.3213 -19.3203 -19.3213h-473.359z" />
  </font>
</defs></svg>
